Rap francais
…
foo<-UD %>%
  group_by(token)%>%
  summarise(n=n())

foo

# A tibble: 93,190 x 2
   token       n
   <chr>   <int>
 1 '        6030
 2 ''         55
 3 ''Baw       1
 4 '-         26
 5 '-arna      1
 6 '-Bèg'      1
 7 '-bi        4
 8 '-bi'       3
 9 '-Biff'     1
10 '-co        2
# ... with 93,180 more rows
…
